<?xml version="1.0" encoding="UTF-8" standalone="no"?>
<svg width="46px" height="60px" viewBox="0 0 46 60" version="1.1" xmlns="http://www.w3.org/2000/svg" xmlns:xlink="http://www.w3.org/1999/xlink" xmlns:sketch="http://www.bohemiancoding.com/sketch/ns">
    <!-- Generator: Sketch 3.5.2 (25235) - http://www.bohemiancoding.com/sketch -->
    <title>Shape</title>
    <desc>Created with Sketch.</desc>
    <defs></defs>
    <g id="Page-1" stroke="none" stroke-width="1" fill="none" fill-rule="evenodd" sketch:type="MSPage">
        <g id="Artboard-1-Copy-2" sketch:type="MSArtboardGroup" transform="translate(-697.000000, -3151.000000)" fill="#7F5F91">
            <path d="M742.707,3167.293 L726.707,3151.293 C726.519,3151.105 726.265,3151 726,3151 L698,3151 C697.448,3151 697,3151.447 697,3152 L697,3210 C697,3210.553 697.448,3211 698,3211 L742,3211 C742.552,3211 743,3210.553 743,3210 L743,3168 C743,3167.734 742.894,3167.48 742.707,3167.293 L742.707,3167.293 Z M734.435,3201 L706,3201 C705.448,3201 705,3200.553 705,3200 L705,3170.913 C705,3170.36 705.448,3169.913 706,3169.913 C706.552,3169.913 707,3170.36 707,3170.913 L707,3189.749 L716.112,3181.519 C716.452,3181.211 716.957,3181.176 717.337,3181.429 L724.197,3186.003 L733.27,3176.316 C733.648,3175.913 734.28,3175.892 734.684,3176.27 C735.087,3176.647 735.108,3177.28 734.73,3177.683 L725.078,3187.988 C724.743,3188.344 724.2,3188.407 723.793,3188.136 L716.875,3183.524 L707,3192.444 L707,3199 L734.435,3199 C734.987,3199 735.435,3199.447 735.435,3200 C735.435,3200.553 734.987,3201 734.435,3201 L734.435,3201 Z M726,3168 L726,3152 L742,3168 L726,3168 L726,3168 Z" id="Shape" sketch:type="MSShapeGroup"></path>
        </g>
    </g>
</svg>